2.1 Inferenza bayesiana con una distribuzione a priori discreta | Data Science per psicologi
…
Una volta installato, il pacchetto può essere caricato come facciamo normalmente:

library("ProbBayes")

Per usare bayesian_crank() procediamo come indicato di seguito:

df <- tibble(p = theta, Prior = p2)
y <- 12
n <- 20
df$Likelihood <- dbinom(y, prob = df$p, size = n)
df <- bayesian_crank(df)
df
#> # A tibble: 10 × 5
#>       p Prior   Likelihood       Product    Posterior
#>   <dbl> <dbl>        <dbl>         <dbl>        <dbl>
#> 1   0.1 0.05  0.0000000542 0.00000000271 0.0000000339
#> 2   0.2 0.05  0.0000866    0.00000433    0.0000541   
#> 3   0.3 0.05  0.00386      0.000193      0.00241     
#> 4   0.4 0.175 0.0355       0.00621       0.0776      
#> 5   0.5 0.175 0.120        0.0210        0.263       
#> 6   0.6 0.175 0.180        0.0314        0.393       
#> 7   0.7 0.175 0.114        0.0200        0.250       
#> 8   0.8 0.05  0.0222       0.00111       0.0138      
#> # … with 2 more rows
…
